module gitlab.com/mergetb/tech/nex

require (
	github.com/boltdb/bolt v1.3.1 // indirect
	github.com/coreos/bbolt v1.3.0 // indirect
	github.com/coreos/etcd v3.3.11+incompatible
	github.com/coreos/go-semver v0.2.0 // indirect
	github.com/coreos/go-systemd v0.0.0-20181031085051-9002847aa142 // indirect
	github.com/coreos/pkg v0.0.0-20180928190104-399ea9e2e55f // indirect
	github.com/dgrijalva/jwt-go v3.2.0+incompatible // indirect
	github.com/ghodss/yaml v1.0.0 // indirect
	github.com/gogo/protobuf v1.2.0 // indirect
	github.com/golang/groupcache v0.0.0-20181024230925-c65c006176ff // indirect
	github.com/golang/protobuf v1.3.1
	github.com/google/btree v0.0.0-20180813153112-4030bb1f1f0c // indirect
	github.com/google/gopacket v1.1.17
	github.com/gorilla/websocket v1.4.0 // indirect
	github.com/grpc-ecosystem/go-grpc-middleware v1.0.0 // indirect
	github.com/grpc-ecosystem/go-grpc-prometheus v1.2.0 // indirect
	github.com/grpc-ecosystem/grpc-gateway v1.6.4 // indirect
	github.com/inconshreveable/mousetrap v1.0.0 // indirect
	github.com/jonboulle/clockwork v0.1.0 // indirect
	github.com/krolaw/dhcp4 v0.0.0-20180925202202-7cead472c414
	github.com/mdlayher/ethernet v0.0.0-20190606142754-0394541c37b7
	github.com/mdlayher/raw v0.0.0-20191009151244-50f2db8cc065
	github.com/mergetb/yaml/v3 v3.0.1
	github.com/pkg/errors v0.8.1 // indirect
	github.com/prometheus/client_golang v0.9.2 // indirect
	github.com/prometheus/client_model v0.0.0-20190115171406-56726106282f // indirect
	github.com/sirupsen/logrus v1.3.0
	github.com/soheilhy/cmux v0.1.4 // indirect
	github.com/spf13/cobra v0.0.3
	github.com/tmc/grpc-websocket-proxy v0.0.0-20190109142713-0ad062ec5ee5 // indirect
	github.com/ugorji/go/codec v0.0.0-20181209151446-772ced7fd4c2 // indirect
	github.com/xiang90/probing v0.0.0-20190116061207-43a291ad63a2 // indirect
	gitlab.com/mergetb/tech/rtnl v0.1.9
	go.uber.org/atomic v1.3.2 // indirect
	go.uber.org/multierr v1.1.0 // indirect
	go.uber.org/zap v1.9.1 // indirect
	golang.org/x/time v0.0.0-20181108054448-85acf8d2951c // indirect
	google.golang.org/grpc v1.18.0
	gopkg.in/yaml.v2 v2.2.2 // indirect
)

go 1.13
